{
  "project_info": {
    "project_number": "892196041941",
    "firebase_url": "https://axon-1a179.firebaseio.com",
    "project_id": "axon-1a179",
    "storage_bucket": "axon-1a179.appspot.com"
  },
  "client": [
    {
      "client_info": {
        "mobilesdk_app_id": "1:892196041941:android:28d367c0a67cda95",
        "android_client_info": {
          "package_name": "org.nativescript.myMd"
        }
      },
      "oauth_client": [
        {
          "client_id": "892196041941-njetk08ab777lkddo25mbqemag33ef22.apps.googleusercontent.com",
          "client_type": 3
        }
      ],
      "api_key": [
        {
          "current_key": "AIzaSyDTZHRp7-hIGlpVRoDJdxs9ppxxY9ILlkk"
        }
      ],
      "services": {
        "analytics_service": {
          "status": 1
        },
        "appinvite_service": {
          "status": 1,
          "other_platform_oauth_client": []
        },
        "ads_service": {
          "status": 2
        }
      }
    }
  ],
  "configuration_version": "1"
}